Mathematical genealogy scraping
…
df_nodes <- 
  df_edgelist %>% 
  gather() %>% 
  pull(value) %>% 
  unique() %>% 
  tibble(id = .) %>% 
  mutate(page = map_chr(id, generate_page),
         infos = map(page, get_infos)) %>% 
  unnest(infos) %>% 
  select(-page)

df_nodes

## # A tibble: 56 x 2
##    id     label                       
##    <chr>  <chr>                       
##  1 150077 "Rémi Peyre "               
##  2 56307  "Cédric Villani "           
##  3 13140  "Pierre-Louis Lions "       
##  4 39923  "Haim Brezis "              
##  5 15600  "Gustave Choquet "          
##  6 24548  "Arnaud Denjoy "            
##  7 105158 "René-Louis Baire "         
##  8 34266  "C. Émile (Charles) Picard "
##  9 34254  "Gaston Darboux "           
## 10 26995  "Michel Chasles "           
## # ... with 46 more rows
…
