Répartition des premiers chiffres pour une croissance exponentielle
…
27/08/2018

library(tidyverse)
library(rvest)
theme_set(theme_bw())

df <- 
  "https://fr.wikipedia.org/wiki/Liste_des_pays_par_population" %>% 
  read_html() %>% 
  html_node('table') %>% 
  html_table() %>% 
  as_tibble()
df

## # A tibble: 204 x 6
##    Rang  `Pays ou territo… `Population[Note…  Date Source Commentaires    
##    <chr> <chr>             <chr>             <int> <chr>  <chr>           
##  1 1     Chine             1 415 045 928      2018 Offic… Pays le plus pe…
##  2 2     Inde              1 355 621 800      2018 Offic… Pays le plus pe…
##  3 •     Union européenne  512 596 403        2018 Offic… L'Union europée…
##  4 3     États-Unis        328 286 400        2018 Offic… Pays le plus pe…
##  5 4     Indonésie         266 471 000        2018 Offic… Archipel le plu…
##  6 5     Pakistan          207 774 520        2017 Offic… ""              
##  7 6     Brésil            207 096 196        2017 Offic… Pays le plus pe…
##  8 7     Nigeria           190 632 261        2017 CIA W… Pays le plus pe…
##  9 8     Bangladesh        160 339 154        2016 Offic… ""              
## 10 9     Russie            146 544 710        2016 Offic… La population r…
## # ... with 194 more rows
…
frequences %>% 
  select(premier_chiffre, freq_obs, freq_unif, freq_benford) %>% 
  gather(-premier_chiffre, key = type, value = freq) %>% 
  mutate(type = factor(type, 
                       levels = c("freq_obs", "freq_benford", "freq_unif"),
                       labels = c("Observé", "Benford", "Uniforme"))) %>% 
  print() %>% 
  ggplot() +
  aes(x = premier_chiffre, y = freq, fill = type) +
  geom_col(position = "dodge", color = "black") +
  labs(x = "Premier chiffre", y = "Fréquence", 
       fill = "Type", title = "Barplot des différences fréquences")

## # A tibble: 27 x 3
##    premier_chiffre type       freq
##    <chr>           <fct>     <dbl>
##  1 1               Observé  0.304 
##  2 2               Observé  0.147 
##  3 3               Observé  0.137 
##  4 4               Observé  0.0833
##  5 5               Observé  0.0980
##  6 6               Observé  0.0735
##  7 7               Observé  0.0392
##  8 8               Observé  0.0490
##  9 9               Observé  0.0686
## 10 1               Uniforme 0.111 
## # ... with 17 more rows
…
